…
```
## Error in loadNamespace(name): there is no package called 'webshot'
```

```r
# Gapminder dataviz
library(gapminder)

gapminder
```

```
## # A tibble: 1,704 x 7
##    country     continent  year lifeExp      pop gdpPercap pop_m
##    <fct>       <fct>     <int>   <dbl>    <int>     <dbl> <dbl>
##  1 Afghanistan Asia       1952    28.8  8425333      779.  8.43
##  2 Afghanistan Asia       1957    30.3  9240934      821.  9.24
##  3 Afghanistan Asia       1962    32.0 10267083      853. 10.3 
##  4 Afghanistan Asia       1967    34.0 11537966      836. 11.5 
##  5 Afghanistan Asia       1972    36.1 13079460      740. 13.1 
##  6 Afghanistan Asia       1977    38.4 14880372      786. 14.9 
##  7 Afghanistan Asia       1982    39.9 12881816      978. 12.9 
##  8 Afghanistan Asia       1987    40.8 13867957      852. 13.9 
##  9 Afghanistan Asia       1992    41.7 16317921      649. 16.3 
## 10 Afghanistan Asia       1997    41.8 22227415      635. 22.2 
## # ... with 1,694 more rows
```
…
# Data Visualization
library(ggplot2)
#Scatter plot of two variables, label with country using color
gapminder2007 <- gapminder2 %>%
                  filter(year == 2007)
gapminder2007
```

```
## # A tibble: 142 x 7
##    country     continent  year lifeExp       pop gdpPercap   pop_m
##    <fct>       <fct>     <int>   <dbl>     <int>     <dbl>   <dbl>
##  1 Afghanistan Asia       2007    43.8  31889923      975.  31.9  
##  2 Albania     Europe     2007    76.4   3600523     5937.   3.60 
##  3 Algeria     Africa     2007    72.3  33333216     6223.  33.3  
##  4 Angola      Africa     2007    42.7  12420476     4797.  12.4  
##  5 Argentina   Americas   2007    75.3  40301927    12779.  40.3  
##  6 Australia   Oceania    2007    81.2  20434176    34435.  20.4  
##  7 Austria     Europe     2007    79.8   8199783    36126.   8.20 
##  8 Bahrain     Asia       2007    75.6    708573    29796.   0.709
##  9 Bangladesh  Asia       2007    64.1 150448339     1391. 150.   
## 10 Belgium     Europe     2007    79.4  10392226    33693.  10.4  
## # ... with 132 more rows
```
…
